%YAML 1.1
%TAG !u! tag:unity3d.com,2011:
--- !u!114 &11400000
MonoBehaviour:
  m_ObjectHideFlags: 0
  m_PrefabParentObject: {fileID: 0}
  m_PrefabInternal: {fileID: 0}
  m_GameObject: {fileID: 0}
  m_Enabled: 1
  m_EditorHideFlags: 0
  m_Script: {fileID: 11500000, guid: b19f91eeb8a3cc8499be6693c5ef8785, type: 3}
  m_Name: GameSettings
  m_EditorClassIdentifier: 
  roomGeneratorSettings: {fileID: 11400000, guid: 5fa96c6c5bd360e4b93dfb2df0c14ac8,
    type: 2}
  roomSettings: {fileID: 11400000, guid: 71440dec5e00d5b4c8802ffb6e5e972f, type: 2}
  clockSettings: {fileID: 11400000, guid: 49a72bf5a96f53b4b8067c500bf11cce, type: 2}
  textPopUpEffect: {fileID: 11400000, guid: 97630cc2cfd19bb45a7980bf01c714f9, type: 2}
  backgroundMusic: {fileID: 11400000, guid: fcf146e4f87084c49b0bf1555b97b196, type: 2}
