%YAML 1.1
%TAG !u! tag:unity3d.com,2011:
--- !u!114 &11400000
MonoBehaviour:
  m_ObjectHideFlags: 0
  m_PrefabParentObject: {fileID: 0}
  m_PrefabInternal: {fileID: 0}
  m_GameObject: {fileID: 0}
  m_Enabled: 1
  m_EditorHideFlags: 0
  m_Script: {fileID: 0}
  m_Name: RoomSettings
  m_EditorClassIdentifier: Assembly-CSharp::RoomSettings
  roomEaseIn: 27
  roomEaseOut: 34
  roomMoveInTime: 0.5
  roomMoveOutTime: 0.5
  roomFadeOutTime: 0.3
